{
    "data": {
        "quoteTitle": "Quotes",
        "namePlaceholder": "Enter your name",
        "phonePlaceholder": "Phone number",
        "inputOncoming": "Will you require an approach appointment?",
        "inputOncomingTitleHtml": "Una cita de acercamiento es ... ",
        "opcionSelect": "Select",
        "opcionSi": "Yes",
        "opcionNo": "No",
        "titleMap": "Select your location",
        "searchPlaceHolder": "Place",
        "searchButton": "Search place",
        "titleSearchButton": "Search place",
        "titlePlace": "Locate place",
        "titleSubcategorie": "Selected services",
        "titleComment": "Comments",
        "AnyResultsPlace": "Without results",
        "whatsAppButton": "Quote to WhatsApp",
        "ErrormessageFormIncomplete" : "Mandatory form",
        "ErrormessageEmptyInputs" : "Empty fields",
        "ErrormessageEmptyPlace" : "You must select a place",
        "ErrormessageEmptyOncoming" : "Mark the approach appointment",
        "ErrormessageSubcategorie" : "Select a service",
        "SubcategorieEmpty" : "Select some service"
    }
}