{
    "data": {
        "quoteTitle": "Cotizaciones",
        "namePlaceholder": "Ingrese su nombre",
        "phonePlaceholder": "Numero de teléfono",
        "inputOncoming": "Va a requerir una cita de acercamiento?",
        "inputOncomingTitleHtml": "",
        "opcionSelect": "Seleccione",
        "opcionSi": "Si",
        "opcionNo": "No",
        "titleMap": "Seleccione su ubicacion",
        "searchPlaceHolder": "Lugar",
        "searchButton": "Buscar lugar",
        "titleSearchButton": "Buscar lugar",
        "titlePlace": "Ubicar lugar",
        "titleSubcategorie": "Servicios seleccionados",
        "titleComment": "Comentarios",
        "AnyResultsPlace": "Sin resultados",
        "whatsAppButton": "Cotizar al WhatsApp",
        "ErrormessageFormIncomplete" : "formulario obligatorio",
        "ErrormessageEmptyInputs" : "Campos vacios",
        "ErrormessageEmptyPlace" : "Debe seleccionar un lugar",
        "ErrormessageEmptyOncoming" : "Marque la cita de acercamiento",
        "ErrormessageSubcategorie" : "Seleccione algun servicio",
        "SubcategorieEmpty" : "Sin servicios seleccionados"
    }
}